%YAML 1.1
%TAG !u! tag:unity3d.com,2011:
--- !u!1045 &1
EditorBuildSettings:
  m_ObjectHideFlags: 0
  serializedVersion: 2
  m_Scenes:
  - enabled: 1
    path: Assets/Project/Scenes/Menus/Menu_Start_01.unity
    guid: e86c7938267f9944688268c0267c2fc5
  - enabled: 1
    path: Assets/Project/Scenes/GameScenes/Main_Game_SceneOne.unity
    guid: 6d1a87a4de1f5034ab51a4bd06c49f44
  - enabled: 1
    path: Assets/Scenes/Henrik/Main_Henrik.unity
    guid: 73aded715e1895a46a952533ca570bdb
  - enabled: 0
    path: Assets/Scenes/HAMMER/Main_Hammer.unity
    guid: 706da0b3688fb3d49938f1a86fe4037e
  m_configObjects: {}
